\contentsline {chapter}{\numberline {1}435L}{1}{chapter.1}
\contentsline {chapter}{\numberline {2}Hierarchical Index}{3}{chapter.2}
\contentsline {section}{\numberline {2.1}Class Hierarchy}{3}{section.2.1}
\contentsline {chapter}{\numberline {3}Class Index}{5}{chapter.3}
\contentsline {section}{\numberline {3.1}Class List}{5}{section.3.1}
\contentsline {chapter}{\numberline {4}File Index}{7}{chapter.4}
\contentsline {section}{\numberline {4.1}File List}{7}{section.4.1}
\contentsline {chapter}{\numberline {5}Class Documentation}{9}{chapter.5}
\contentsline {section}{\numberline {5.1}account\discretionary {\unhbox \voidb@x \hbox {\relax \fontsize {7}{8}\selectfont $\leftarrow \joinrel \rhook $}}{}{}Window Class Reference}{9}{section.5.1}
\contentsline {subsection}{\numberline {5.1.1}Constructor \& Destructor Documentation}{10}{subsection.5.1.1}
\contentsline {subsubsection}{\numberline {5.1.1.1}account\discretionary {\unhbox \voidb@x \hbox {\relax \fontsize {7}{8}\selectfont $\leftarrow \joinrel \rhook $}}{}{}Window()}{10}{subsubsection.5.1.1.1}
\contentsline {section}{\numberline {5.2}Adventure\discretionary {\unhbox \voidb@x \hbox {\relax \fontsize {7}{8}\selectfont $\leftarrow \joinrel \rhook $}}{}{}Game Class Reference}{10}{section.5.2}
\contentsline {section}{\numberline {5.3}Ascend Class Reference}{11}{section.5.3}
\contentsline {subsection}{\numberline {5.3.1}Constructor \& Destructor Documentation}{12}{subsection.5.3.1}
\contentsline {subsubsection}{\numberline {5.3.1.1}Ascend()}{12}{subsubsection.5.3.1.1}
\contentsline {section}{\numberline {5.4}Bush Class Reference}{12}{section.5.4}
\contentsline {section}{\numberline {5.5}login Class Reference}{13}{section.5.5}
\contentsline {section}{\numberline {5.6}Player Class Reference}{13}{section.5.6}
\contentsline {section}{\numberline {5.7}Puzzle\discretionary {\unhbox \voidb@x \hbox {\relax \fontsize {7}{8}\selectfont $\leftarrow \joinrel \rhook $}}{}{}Game Class Reference}{14}{section.5.7}
\contentsline {section}{\numberline {5.8}Runner\discretionary {\unhbox \voidb@x \hbox {\relax \fontsize {7}{8}\selectfont $\leftarrow \joinrel \rhook $}}{}{}Game Class Reference}{15}{section.5.8}
\contentsline {section}{\numberline {5.9}sign\discretionary {\unhbox \voidb@x \hbox {\relax \fontsize {7}{8}\selectfont $\leftarrow \joinrel \rhook $}}{}{}Up Class Reference}{15}{section.5.9}
\contentsline {section}{\numberline {5.10}Value\discretionary {\unhbox \voidb@x \hbox {\relax \fontsize {7}{8}\selectfont $\leftarrow \joinrel \rhook $}}{}{}Pickup Class Reference}{16}{section.5.10}
\contentsline {subsection}{\numberline {5.10.1}Member Function Documentation}{17}{subsection.5.10.1}
\contentsline {subsubsection}{\numberline {5.10.1.1}update\discretionary {\unhbox \voidb@x \hbox {\relax \fontsize {7}{8}\selectfont $\leftarrow \joinrel \rhook $}}{}{}Position}{17}{subsubsection.5.10.1.1}
\contentsline {chapter}{\numberline {6}File Documentation}{19}{chapter.6}
\contentsline {section}{\numberline {6.1}valuepickup.\discretionary {\unhbox \voidb@x \hbox {\relax \fontsize {7}{8}\selectfont $\leftarrow \joinrel \rhook $}}{}{}h File Reference}{19}{section.6.1}
\contentsline {subsection}{\numberline {6.1.1}Detailed Description}{19}{subsection.6.1.1}
