\relax 
\providecommand\hyper@newdestlabel[2]{}
\providecommand\HyperFirstAtBeginDocument{\AtBeginDocument}
\HyperFirstAtBeginDocument{\ifx\hyper@anchor\@undefined
\global\let\oldcontentsline\contentsline
\gdef\contentsline#1#2#3#4{\oldcontentsline{#1}{#2}{#3}}
\global\let\oldnewlabel\newlabel
\gdef\newlabel#1#2{\newlabelxx{#1}#2}
\gdef\newlabelxx#1#2#3#4#5#6{\oldnewlabel{#1}{{#2}{#3}}}
\AtEndDocument{\ifx\hyper@anchor\@undefined
\let\contentsline\oldcontentsline
\let\newlabel\oldnewlabel
\fi}
\fi}
\global\let\hyper@last\relax 
\gdef\HyperFirstAtBeginDocument#1{#1}
\providecommand\HyField@AuxAddToFields[1]{}
\providecommand\HyField@AuxAddToCoFields[2]{}
\providecommand \oddpage@label [2]{}
\@writefile{toc}{\contentsline {chapter}{\numberline {1}435L}{1}{chapter.1}}
\@writefile{lof}{\addvspace {10\p@ }}
\@writefile{lot}{\addvspace {10\p@ }}
\newlabel{md__r_e_a_d_m_e}{{1}{1}{435L}{chapter.1}{}}
\@writefile{toc}{\contentsline {chapter}{\numberline {2}Hierarchical Index}{3}{chapter.2}}
\@writefile{lof}{\addvspace {10\p@ }}
\@writefile{lot}{\addvspace {10\p@ }}
\@writefile{toc}{\contentsline {section}{\numberline {2.1}Class Hierarchy}{3}{section.2.1}}
\@writefile{toc}{\contentsline {chapter}{\numberline {3}Class Index}{5}{chapter.3}}
\@writefile{lof}{\addvspace {10\p@ }}
\@writefile{lot}{\addvspace {10\p@ }}
\@writefile{toc}{\contentsline {section}{\numberline {3.1}Class List}{5}{section.3.1}}
\@writefile{toc}{\contentsline {chapter}{\numberline {4}File Index}{7}{chapter.4}}
\@writefile{lof}{\addvspace {10\p@ }}
\@writefile{lot}{\addvspace {10\p@ }}
\@writefile{toc}{\contentsline {section}{\numberline {4.1}File List}{7}{section.4.1}}
\@writefile{toc}{\contentsline {chapter}{\numberline {5}Class Documentation}{9}{chapter.5}}
\@writefile{lof}{\addvspace {10\p@ }}
\@writefile{lot}{\addvspace {10\p@ }}
\@writefile{toc}{\contentsline {section}{\numberline {5.1}account\discretionary {\unhbox \voidb@x \hbox {\relax \fontsize  {7}{8}\selectfont  $\leftarrow \joinrel  \rhook $}}{}{}Window Class Reference}{9}{section.5.1}}
\newlabel{classaccount_window}{{5.1}{9}{account\+Window Class Reference}{section.5.1}{}}
\newlabel{classaccount_window_afd81ba7c6eba41c7c46819c373c03603}{{5.1}{9}{Public Slots}{section*.3}{}}
\newlabel{classaccount_window_aaae14cc4c4432f8a914859508b053704}{{5.1}{9}{Public Slots}{section*.3}{}}
\newlabel{classaccount_window_a40e69db8255969e5a643027b08a1e9bf}{{5.1}{9}{Public Slots}{section*.3}{}}
\newlabel{classaccount_window_ab0a276c791e04b092b6c7d75f10388e2}{{5.1}{9}{Public Slots}{section*.3}{}}
\newlabel{classaccount_window_ac27b1cd66b55b4567fc9e2a42820e3e6}{{5.1}{9}{Public Member Functions}{section*.4}{}}
\gdef \LT@i {\LT@entry 
    {3}{75.1869pt}\LT@entry 
    {3}{380.0572pt}}
\newlabel{classaccount_window_aac9efa24f917ec815d3037241a8d841b}{{5.1}{10}{Public Attributes}{section*.5}{}}
\newlabel{classaccount_window_a70e78ac44d0f9eb3cb52bd882fccfaab}{{5.1}{10}{Public Attributes}{section*.5}{}}
\newlabel{classaccount_window_a6cb8e1906e1a7517d8410fb882bdcf3f}{{5.1}{10}{Public Attributes}{section*.5}{}}
\newlabel{classaccount_window_a1b5bd8034ba6af8080963c87dfb4cb7c}{{5.1}{10}{Public Attributes}{section*.5}{}}
\newlabel{classaccount_window_aea2c61e99ad471c12e54e4177f8401e2}{{5.1}{10}{Public Attributes}{section*.5}{}}
\newlabel{classaccount_window_a0248af01d68c9cbc0c662f30d1d0cbbc}{{5.1}{10}{Public Attributes}{section*.5}{}}
\newlabel{classaccount_window_a6fc17dc6bdd540d0adba130a4b5657ac}{{5.1}{10}{Public Attributes}{section*.5}{}}
\newlabel{classaccount_window_ad3df59f6082f1ca0e74caf4887cda3be}{{5.1}{10}{Public Attributes}{section*.5}{}}
\newlabel{classaccount_window_ab14bba43f906330461171cf919b2dc53}{{5.1}{10}{Public Attributes}{section*.5}{}}
\newlabel{classaccount_window_a2c342f4621d208b109f318ba0a85aad2}{{5.1}{10}{Public Attributes}{section*.5}{}}
\newlabel{classaccount_window_a8a25ab7b89946d901d194e680b4d3094}{{5.1}{10}{Public Attributes}{section*.5}{}}
\newlabel{classaccount_window_a26ee4adbcf7da3fdc965d89f10333f8d}{{5.1}{10}{Public Attributes}{section*.5}{}}
\newlabel{classaccount_window_acb7aa39f9e2d2c61e6781326b3f35e3b}{{5.1}{10}{Public Attributes}{section*.5}{}}
\newlabel{classaccount_window_ac6fc02dbaff8bf842c6d4fd43a9d53f0}{{5.1}{10}{Public Attributes}{section*.5}{}}
\newlabel{classaccount_window_ae695454f7beac2b6546954e3ec4d5c9e}{{5.1}{10}{Public Attributes}{section*.5}{}}
\@writefile{toc}{\contentsline {subsection}{\numberline {5.1.1}Constructor \& Destructor Documentation}{10}{subsection.5.1.1}}
\newlabel{classaccount_window_a76b7bca0bcf732cab966e2493fc92581}{{5.1.1}{10}{Constructor \& Destructor Documentation}{subsection.5.1.1}{}}
\@writefile{toc}{\contentsline {subsubsection}{\numberline {5.1.1.1}account\discretionary {\unhbox \voidb@x \hbox {\relax \fontsize  {7}{8}\selectfont  $\leftarrow \joinrel  \rhook $}}{}{}Window()}{10}{subsubsection.5.1.1.1}}
\@writefile{toc}{\contentsline {section}{\numberline {5.2}Adventure\discretionary {\unhbox \voidb@x \hbox {\relax \fontsize  {7}{8}\selectfont  $\leftarrow \joinrel  \rhook $}}{}{}Game Class Reference}{10}{section.5.2}}
\newlabel{class_adventure_game}{{5.2}{10}{Adventure\+Game Class Reference}{section.5.2}{}}
\newlabel{class_adventure_game_afa53b1d0f8c71de16d9a7d4ab2d847e4}{{5.2}{11}{Public Slots}{section*.7}{}}
\newlabel{class_adventure_game_acd1796983f08967bcb8dce27c4d337e1}{{5.2}{11}{Public Member Functions}{section*.8}{}}
\newlabel{class_adventure_game_ab63101f02c62194cc11cbe746393762d}{{5.2}{11}{Public Member Functions}{section*.8}{}}
\@writefile{toc}{\contentsline {section}{\numberline {5.3}Ascend Class Reference}{11}{section.5.3}}
\newlabel{class_ascend}{{5.3}{11}{Ascend Class Reference}{section.5.3}{}}
\newlabel{class_ascend_affbd7fee580d9815a2f347b5d7a6ffa0}{{5.3}{11}{Public Slots}{section*.10}{}}
\newlabel{class_ascend_af600307bf5214e085d956bfb23f3586e}{{5.3}{11}{Public Slots}{section*.10}{}}
\newlabel{class_ascend_a16c9e6d111368b31d4d8d151a305145e}{{5.3}{11}{Public Slots}{section*.10}{}}
\newlabel{class_ascend_a1e54149ca659607a7d3088c908c3e638}{{5.3}{11}{Public Slots}{section*.10}{}}
\newlabel{class_ascend_ace585e7628c9f3557bd7f4819f23c76c}{{5.3}{11}{Public Member Functions}{section*.11}{}}
\newlabel{class_ascend_a1f7dbc122a9b73e4465bd32a07b25658}{{5.3}{11}{Public Member Functions}{section*.11}{}}
\newlabel{class_ascend_a04b69a77816fcd3cacd1d740f593e7a9}{{5.3}{11}{Public Member Functions}{section*.11}{}}
\newlabel{class_ascend_ab678f51fe8df24ea83a9e81febb55a38}{{5.3}{11}{Public Member Functions}{section*.11}{}}
\newlabel{class_ascend_a368276e9664b806eed5fe75ee12b9a63}{{5.3}{11}{Public Attributes}{section*.12}{}}
\newlabel{class_ascend_a891bdee73aa3ff65591769e6e78bacf5}{{5.3}{11}{Public Attributes}{section*.12}{}}
\newlabel{class_ascend_a5959785f51d4f3b1d3a31c69cd859d06}{{5.3}{11}{Public Attributes}{section*.12}{}}
\newlabel{class_ascend_ad6318361b2497e97c055c593d18e2525}{{5.3}{11}{Public Attributes}{section*.12}{}}
\newlabel{class_ascend_a25bb66469708dec3c8877726c2d80ef2}{{5.3}{11}{Public Attributes}{section*.12}{}}
\gdef \LT@ii {\LT@entry 
    {3}{75.1869pt}\LT@entry 
    {3}{264.34984pt}}
\@writefile{toc}{\contentsline {subsection}{\numberline {5.3.1}Constructor \& Destructor Documentation}{12}{subsection.5.3.1}}
\newlabel{class_ascend_a7e354545cf4e125482ff483c84177bf4}{{5.3.1}{12}{Constructor \& Destructor Documentation}{subsection.5.3.1}{}}
\@writefile{toc}{\contentsline {subsubsection}{\numberline {5.3.1.1}Ascend()}{12}{subsubsection.5.3.1.1}}
\@writefile{toc}{\contentsline {section}{\numberline {5.4}Bush Class Reference}{12}{section.5.4}}
\newlabel{class_bush}{{5.4}{12}{Bush Class Reference}{section.5.4}{}}
\newlabel{class_bush_a793cb7faf72d0acfc402d237a7cc3382}{{5.4}{12}{Public Member Functions}{section*.14}{}}
\@writefile{toc}{\contentsline {section}{\numberline {5.5}login Class Reference}{13}{section.5.5}}
\newlabel{classlogin}{{5.5}{13}{login Class Reference}{section.5.5}{}}
\newlabel{classlogin_abe7ca66030cf8a8328606f62d66d3fea}{{5.5}{13}{Public Slots}{section*.16}{}}
\newlabel{classlogin_a71ffe394e09a83b8eca3fe19543c57e7}{{5.5}{13}{Public Slots}{section*.16}{}}
\newlabel{classlogin_af601658aa80dc22f5a8e3aaeaa4fbebf}{{5.5}{13}{Public Slots}{section*.16}{}}
\newlabel{classlogin_ab0ef02ae84a8c877a3da00c9bb600d44}{{5.5}{13}{Public Member Functions}{section*.17}{}}
\newlabel{classlogin_a82adac98c3fb9ee3517a24ed5838c28b}{{5.5}{13}{Public Attributes}{section*.18}{}}
\newlabel{classlogin_a6c9f9611ea15ea3c8ec2127179a4ac94}{{5.5}{13}{Public Attributes}{section*.18}{}}
\newlabel{classlogin_a42c83620bd94be2ef4c894f7d56920b0}{{5.5}{13}{Public Attributes}{section*.18}{}}
\newlabel{classlogin_ab8b4776ece1a9b76cb2e57d9837f7f90}{{5.5}{13}{Public Attributes}{section*.18}{}}
\newlabel{classlogin_ac466d1d103247ab7104e785fbfd7002c}{{5.5}{13}{Public Attributes}{section*.18}{}}
\newlabel{classlogin_a49307fdd56c5576157594b3e44e5c6b5}{{5.5}{13}{Public Attributes}{section*.18}{}}
\newlabel{classlogin_a3335faac9d44b14907f2c61aa9d7f7f1}{{5.5}{13}{Public Attributes}{section*.18}{}}
\newlabel{classlogin_a1aa985c0fbc4619f67e643e149d67dc5}{{5.5}{13}{Public Attributes}{section*.18}{}}
\newlabel{classlogin_a252512fab042c70d78240417c11675dd}{{5.5}{13}{Public Attributes}{section*.18}{}}
\newlabel{classlogin_ad1c8f89ec43a0f65b9bb1ff2d2b01a0c}{{5.5}{13}{Public Attributes}{section*.18}{}}
\newlabel{classlogin_a273e1cb140764406c4abac253292e849}{{5.5}{13}{Public Attributes}{section*.18}{}}
\newlabel{classlogin_ab0a45de762f23e872fa54dccd54d5fa1}{{5.5}{13}{Public Attributes}{section*.18}{}}
\newlabel{classlogin_a9e3fe1edc469d3059cdb42ab77a52cbb}{{5.5}{13}{Public Attributes}{section*.18}{}}
\@writefile{toc}{\contentsline {section}{\numberline {5.6}Player Class Reference}{13}{section.5.6}}
\newlabel{class_player}{{5.6}{13}{Player Class Reference}{section.5.6}{}}
\newlabel{class_player_a2ac6858767b5cddc5ae221b463887324}{{5.6}{14}{Public Slots}{section*.20}{}}
\newlabel{class_player_afefd67f30748707b946af73014831ce9}{{5.6}{14}{Public Slots}{section*.20}{}}
\newlabel{class_player_a1078e29a9779991ea47528d8b31f32ca}{{5.6}{14}{Public Member Functions}{section*.21}{}}
\newlabel{class_player_a4d269c4118c29b0ee85c1e0f674260ee}{{5.6}{14}{Public Member Functions}{section*.21}{}}
\newlabel{class_player_a09f3d5dea93b5699138eba6f4f420b27}{{5.6}{14}{Public Member Functions}{section*.21}{}}
\newlabel{class_player_a1f9c5ddd65496ffeb8e70fcbec6b84d7}{{5.6}{14}{Public Member Functions}{section*.21}{}}
\newlabel{class_player_ae7af7bd4c9e75e9ba0331449ca5ba430}{{5.6}{14}{Public Attributes}{section*.22}{}}
\newlabel{class_player_ae2406ccada3efdcff57ddfe7cbf8ee3c}{{5.6}{14}{Public Attributes}{section*.22}{}}
\newlabel{class_player_a8d7711f889395627a4853923aae7fb0d}{{5.6}{14}{Public Attributes}{section*.22}{}}
\newlabel{class_player_a019bf7a5ae0b754bf56ae81d4e4510c4}{{5.6}{14}{Public Attributes}{section*.22}{}}
\newlabel{class_player_ae6914e62770aa083cc4d7f1a7bfbfbe3}{{5.6}{14}{Public Attributes}{section*.22}{}}
\newlabel{class_player_a19354bc109cdc4b9789b288e3865ea01}{{5.6}{14}{Public Attributes}{section*.22}{}}
\newlabel{class_player_a260a9ac5f51bb54025a1d6ff5abf71f8}{{5.6}{14}{Public Attributes}{section*.22}{}}
\newlabel{class_player_a85dffeef18ba5c8f5c7ee831a44e1b50}{{5.6}{14}{Public Attributes}{section*.22}{}}
\newlabel{class_player_ad7de7ed3b1a53882d368d2043df11ecb}{{5.6}{14}{Public Attributes}{section*.22}{}}
\newlabel{class_player_a2bafb38980cae6e5ab9f5e3b1ecd9899}{{5.6}{14}{Public Attributes}{section*.22}{}}
\newlabel{class_player_acb8793398529bbec57d0bdc5d2fc2f9d}{{5.6}{14}{Public Attributes}{section*.22}{}}
\newlabel{class_player_ac0f8b3f698578795d9fb5e29de2d7317}{{5.6}{14}{Public Attributes}{section*.22}{}}
\newlabel{class_player_a2c4960c47ace6c7c91684ca69eaaf012}{{5.6}{14}{Public Attributes}{section*.22}{}}
\newlabel{class_player_a2448b92cb78d68f0e906ef59cf2b7e32}{{5.6}{14}{Public Attributes}{section*.22}{}}
\newlabel{class_player_aaf4313f59bcacfc86b9ab5bd620167c6}{{5.6}{14}{Public Attributes}{section*.22}{}}
\newlabel{class_player_a17060460317ef3971a987133e4580617}{{5.6}{14}{Public Attributes}{section*.22}{}}
\newlabel{class_player_a54ce415ed981c84c5df09233da74f9dc}{{5.6}{14}{Public Attributes}{section*.22}{}}
\newlabel{class_player_ac0de082c095ff492e9630ef134ce28bf}{{5.6}{14}{Public Attributes}{section*.22}{}}
\newlabel{class_player_a674c164904c33d252f3f27b2aca3556f}{{5.6}{14}{Public Attributes}{section*.22}{}}
\@writefile{toc}{\contentsline {section}{\numberline {5.7}Puzzle\discretionary {\unhbox \voidb@x \hbox {\relax \fontsize  {7}{8}\selectfont  $\leftarrow \joinrel  \rhook $}}{}{}Game Class Reference}{14}{section.5.7}}
\newlabel{class_puzzle_game}{{5.7}{14}{Puzzle\+Game Class Reference}{section.5.7}{}}
\newlabel{class_puzzle_game_a9f7af2047ff484d812fbf779b9de4e0e}{{5.7}{15}{Public Slots}{section*.24}{}}
\newlabel{class_puzzle_game_ac9c34557442e8b950c58a8f94268ee3b}{{5.7}{15}{Public Member Functions}{section*.25}{}}
\newlabel{class_puzzle_game_ab04d5ba93f55470fae0f1840a8f2876e}{{5.7}{15}{Public Member Functions}{section*.25}{}}
\@writefile{toc}{\contentsline {section}{\numberline {5.8}Runner\discretionary {\unhbox \voidb@x \hbox {\relax \fontsize  {7}{8}\selectfont  $\leftarrow \joinrel  \rhook $}}{}{}Game Class Reference}{15}{section.5.8}}
\newlabel{class_runner_game}{{5.8}{15}{Runner\+Game Class Reference}{section.5.8}{}}
\newlabel{class_runner_game_a92c1e31d5690a3757596f525a8feb87c}{{5.8}{15}{Public Slots}{section*.27}{}}
\newlabel{class_runner_game_a93d13aa3f6121bbf82917c0be7118134}{{5.8}{15}{Public Member Functions}{section*.28}{}}
\newlabel{class_runner_game_a773b2844bb5b0648d1689afe71b1492f}{{5.8}{15}{Public Member Functions}{section*.28}{}}
\@writefile{toc}{\contentsline {section}{\numberline {5.9}sign\discretionary {\unhbox \voidb@x \hbox {\relax \fontsize  {7}{8}\selectfont  $\leftarrow \joinrel  \rhook $}}{}{}Up Class Reference}{15}{section.5.9}}
\newlabel{classsign_up}{{5.9}{15}{sign\+Up Class Reference}{section.5.9}{}}
\newlabel{classsign_up_a7692f68f79b801ed78894d5b1cae260e}{{5.9}{16}{Public Slots}{section*.30}{}}
\newlabel{classsign_up_a78118186f889225bbe679f013f34b081}{{5.9}{16}{Public Slots}{section*.30}{}}
\newlabel{classsign_up_addc40e4a246f6f1292422e428b722db7}{{5.9}{16}{Public Slots}{section*.30}{}}
\newlabel{classsign_up_afbffdf4541b21b0cff4c5fbff1ffc7dc}{{5.9}{16}{Public Member Functions}{section*.31}{}}
\newlabel{classsign_up_a46ce5d9cf55e09a8c5cd5cab86142b9c}{{5.9}{16}{Public Attributes}{section*.32}{}}
\newlabel{classsign_up_a1ca1334386902a98b688eb5fe41e0eca}{{5.9}{16}{Public Attributes}{section*.32}{}}
\newlabel{classsign_up_a343903efc95f00878f1fd42b208de082}{{5.9}{16}{Public Attributes}{section*.32}{}}
\newlabel{classsign_up_a73cc3f0a5e2fb473539bea3e7d422838}{{5.9}{16}{Public Attributes}{section*.32}{}}
\newlabel{classsign_up_a27682cc63a9f66dd964b8b60520701bb}{{5.9}{16}{Public Attributes}{section*.32}{}}
\newlabel{classsign_up_ac1a072fcaf40945c6b511feb7a224573}{{5.9}{16}{Public Attributes}{section*.32}{}}
\newlabel{classsign_up_ada6de1e1fd4812d3209af5a0fc9f69dc}{{5.9}{16}{Public Attributes}{section*.32}{}}
\newlabel{classsign_up_acd22fdb704081b851336580752d2413c}{{5.9}{16}{Public Attributes}{section*.32}{}}
\newlabel{classsign_up_a4c1d3fccead4f1f8d92226fb8a2c6c20}{{5.9}{16}{Public Attributes}{section*.32}{}}
\newlabel{classsign_up_ac11707372998908333ff509f96e156d8}{{5.9}{16}{Public Attributes}{section*.32}{}}
\newlabel{classsign_up_a72e56f2b77d0d9e87ef277db6887eb37}{{5.9}{16}{Public Attributes}{section*.32}{}}
\newlabel{classsign_up_abf01ddea1b3856e7f4f84bc2d1cb7e43}{{5.9}{16}{Public Attributes}{section*.32}{}}
\newlabel{classsign_up_a3fea0bc99f9b89bfe8906ef4c1a62e6e}{{5.9}{16}{Public Attributes}{section*.32}{}}
\newlabel{classsign_up_abbf87e55dbcb552379c54066044b3a62}{{5.9}{16}{Public Attributes}{section*.32}{}}
\newlabel{classsign_up_acf97783b035b0457d5f965dabd0c1dcf}{{5.9}{16}{Public Attributes}{section*.32}{}}
\newlabel{classsign_up_ada9439239d83c65f6a6ffbff1398689b}{{5.9}{16}{Public Attributes}{section*.32}{}}
\newlabel{classsign_up_a3e22dcf83b7c1881e14de2dcf3a23672}{{5.9}{16}{Public Attributes}{section*.32}{}}
\newlabel{classsign_up_ac73e47605e55a38afd7d0552b2859a28}{{5.9}{16}{Public Attributes}{section*.32}{}}
\newlabel{classsign_up_ae8987f955fd4c3d0e3f864b60639bc89}{{5.9}{16}{Public Attributes}{section*.32}{}}
\newlabel{classsign_up_a6c71a3cebbfc3985cdf9e7ada367427f}{{5.9}{16}{Public Attributes}{section*.32}{}}
\newlabel{classsign_up_afff2e85366d9040fdf96b94d7f58608f}{{5.9}{16}{Public Attributes}{section*.32}{}}
\newlabel{classsign_up_a083324547635e4230817e3001d799ac3}{{5.9}{16}{Public Attributes}{section*.32}{}}
\newlabel{classsign_up_ad7db4816be4cfcb76e33793ac9645654}{{5.9}{16}{Public Attributes}{section*.32}{}}
\newlabel{classsign_up_ab1cb524b9af917738f49803ce8d406dd}{{5.9}{16}{Public Attributes}{section*.32}{}}
\newlabel{classsign_up_aa3b0b3645f80acf110b921e8cb58f8b9}{{5.9}{16}{Public Attributes}{section*.32}{}}
\newlabel{classsign_up_a6527f969066031c753c4b85b29171722}{{5.9}{16}{Public Attributes}{section*.32}{}}
\@writefile{toc}{\contentsline {section}{\numberline {5.10}Value\discretionary {\unhbox \voidb@x \hbox {\relax \fontsize  {7}{8}\selectfont  $\leftarrow \joinrel  \rhook $}}{}{}Pickup Class Reference}{16}{section.5.10}}
\newlabel{class_value_pickup}{{5.10}{16}{Value\+Pickup Class Reference}{section.5.10}{}}
\newlabel{class_value_pickup_af4eec5ec6ed126fa0b2a6ff1f386d69d}{{5.10}{17}{Public Member Functions}{section*.35}{}}
\newlabel{class_value_pickup_a89f5b2261dbb967999631be8e9378af0}{{5.10}{17}{Public Member Functions}{section*.35}{}}
\newlabel{class_value_pickup_a6a0eb64b716885437f44194f15c47ed1}{{5.10}{17}{Public Member Functions}{section*.35}{}}
\newlabel{class_value_pickup_abbcb2e241dad2764b49c18e6bc0aab37}{{5.10}{17}{Public Attributes}{section*.36}{}}
\newlabel{class_value_pickup_a7f809199f8a6392481bd3f2facbd1cbd}{{5.10}{17}{Public Attributes}{section*.36}{}}
\newlabel{class_value_pickup_ad1495fbee46904d4573f5f369bf64e4b}{{5.10}{17}{Public Attributes}{section*.36}{}}
\newlabel{class_value_pickup_a895c22d17bc2fe06f67e1bf7329d65e6}{{5.10}{17}{Public Attributes}{section*.36}{}}
\newlabel{class_value_pickup_a3701cfa0b454b3da84770e8f44764488}{{5.10}{17}{Public Attributes}{section*.36}{}}
\@writefile{toc}{\contentsline {subsection}{\numberline {5.10.1}Member Function Documentation}{17}{subsection.5.10.1}}
\newlabel{class_value_pickup_ad5181c7629775b59a711d8ded4a69c80}{{5.10.1}{17}{Member Function Documentation}{subsection.5.10.1}{}}
\@writefile{toc}{\contentsline {subsubsection}{\numberline {5.10.1.1}update\discretionary {\unhbox \voidb@x \hbox {\relax \fontsize  {7}{8}\selectfont  $\leftarrow \joinrel  \rhook $}}{}{}Position}{17}{subsubsection.5.10.1.1}}
\@writefile{toc}{\contentsline {chapter}{\numberline {6}File Documentation}{19}{chapter.6}}
\@writefile{lof}{\addvspace {10\p@ }}
\@writefile{lot}{\addvspace {10\p@ }}
\@writefile{toc}{\contentsline {section}{\numberline {6.1}valuepickup.\discretionary {\unhbox \voidb@x \hbox {\relax \fontsize  {7}{8}\selectfont  $\leftarrow \joinrel  \rhook $}}{}{}h File Reference}{19}{section.6.1}}
\newlabel{valuepickup_8h}{{6.1}{19}{valuepickup.\+h File Reference}{section.6.1}{}}
\@writefile{toc}{\contentsline {subsection}{\numberline {6.1.1}Detailed Description}{19}{subsection.6.1.1}}
